<?xml version="1.0" encoding="utf-8"?>
<!-- Generator: Adobe Illustrator 19.2.1, SVG Export Plug-In . SVG Version: 6.00 Build 0)  -->
<svg version="1.1" id="Layer_1" xmlns="http://www.w3.org/2000/svg" xmlns:xlink="http://www.w3.org/1999/xlink" x="0px" y="0px"
	 viewBox="0 0 43.4 43.4" style="enable-background:new 0 0 43.4 43.4;" xml:space="preserve">
<style type="text/css">
	.st0{fill:none;}
	.st1{fill:#444444;}
</style>
<g>
	<polygon class="st0" points="13,36.9 18.1,30.9 13,27.1 	"/>
	<polygon class="st0" points="36.1,5 4,17.9 12.3,24.1 	"/>
	<polygon class="st0" points="14,25.3 33.3,39.9 40.5,4.1 	"/>
	<path class="st1" d="M43.4,0L0,17.3l11,8.3v16.7l8.6-10.3l15,11.3L43.4,0z M36.1,5l-23.8,19L4,17.9L36.1,5z M13,36.9v-9.8l5,3.8
		L13,36.9z M14,25.3L40.5,4.1l-7.2,35.8L14,25.3z"/>
</g>
</svg>
